%!PS-Adobe-3.0 EPSF-3.0
%%BoundingBox: 231 380 409 484
%%Creator: Martijn Hidding with JaxoDraw-3.0-SNAPSHOT
%%Title: 
%%CreationDate: 30/10/2020
%%BeginProlog
/imStr 0 def /imageSrc {currentfile /ASCII85Decode filter /RunLengthDecode filter  imStr readstring pop } def
/BD {bind def} bind def
/D {def} BD
/C {curveto} BD
/L {lineto} BD
/M {moveto} BD
/R {grestore} BD
/G {gsave} BD
/N {newpath} BD
/P {closepath} BD
/EC {eoclip} BD
/WC {clip} BD
/EF {eofill} BD
/WF {fill} BD
/SG {setgray} BD
/SC {setrgbcolor} BD
/ISOF {
     dup findfont dup length 1 add dict begin {
             1 index /FID eq {pop pop} {D} ifelse
     } forall /Encoding ISOLatin1Encoding D
     currentdict end definefont
} BD
/NZ {dup 1 lt {pop 1} if} BD
/S {
     moveto 1 index stringwidth pop NZ sub
     1 index length 1 sub NZ div 0
     3 2 roll ashow newpath} BD
/FL [
    /AvantGarde-Book ISOF
    /AvantGarde-BookOblique ISOF
    /AvantGarde-Demi ISOF
    /AvantGarde-DemiOblique ISOF
    /Bookman-Demi ISOF
    /Bookman-DemiItalic ISOF
    /Bookman-Light ISOF
    /Bookman-LightItalic ISOF
    /Courier ISOF
    /Courier-Bold ISOF
    /Courier-BoldOblique ISOF
    /Courier-Oblique ISOF
    /Helvetica ISOF
    /Helvetica-Bold ISOF
    /Helvetica-BoldOblique ISOF
    /Helvetica-Narrow ISOF
    /Helvetica-Narrow-Bold ISOF
    /Helvetica-Narrow-BoldOblique ISOF
    /Helvetica-Narrow-Oblique ISOF
    /Helvetica-Oblique ISOF
    /NewCenturySchlbk-Bold ISOF
    /NewCenturySchlbk-BoldItalic ISOF
    /NewCenturySchlbk-Italic ISOF
    /NewCenturySchlbk-Roman ISOF
    /Palatino-Bold ISOF
    /Palatino-BoldItalic ISOF
    /Palatino-Italic ISOF
    /Palatino-Roman ISOF
    /Symbol findfont
    /Times-Bold ISOF
    /Times-BoldItalic ISOF
    /Times-Italic ISOF
    /Times-Roman ISOF
    /ZapfDingbats findfont
    /ZapfChancery-MediumItalic ISOF
] D
/F {
     FL exch get exch scalefont
     [1 0 0 -1 0 0] makefont setfont} BD
%%EndProlog
%%BeginSetup
<< /PageSize [612.0 792.0] /DeferredMediaSelection true /ImagingBBox null /ManualFeed false /NumCopies 1 >> pop 
%%EndSetup
%%Page: 1 1
/pgSave save def
792.0 0 exch translate 1 -1 scale[72 300 div 0 0 72 300 div 0 0]concat
G
[4.1666665 0.0 0.0 4.1666665 300.0 300.0] concat
N
0.0 0.0 M
468.0 0.0 L
468.0 648.0 L
0.0 648.0 L
0.0 0.0 L
P
WC
N
287.02 287.803 M
283.3 306.403 266.968 319.792 248.0 319.792 C
229.032 319.792 212.7 306.403 208.98 287.803 C
208.784 286.823 L
206.823 287.216 L
207.02 288.197 L
210.927 307.731 228.078 321.792 248.0 321.792 C
267.922 321.792 285.073 307.731 288.981 288.197 C
289.177 287.216 L
287.216 286.823 L
287.02 287.803 L
P
G
WC
WF
R N
R
G
[83.333336 0.0 0.0 83.333336 1041.6666 1444.213] concat
N
-8.9 -13.731 M
14.5 -13.731 L
14.5 18.669 L
-8.9 18.669 L
-8.9 -13.731 L
P
WC
N
0.0448125 0.1215 M
0.0448125 0.1215 L
0.156375 -0.32175 L
0.161 -0.341625 0.1633125 -0.3585625 0.1633125 -0.3725625 C
0.1633125 -0.4030625 0.153 -0.4183125 0.132375 -0.4183125 C
0.10525 -0.4183125 0.0830625 -0.38674998 0.0658125 -0.323625 C
0.0638125 -0.31637502 0.0618125 -0.3084375 0.0598125 -0.2998125 C
0.0524375 -0.2851875 0.046749998 -0.2775625 0.04275 -0.2769375 C
0.034875 -0.2769375 0.0309375 -0.28025 0.0309375 -0.286875 C
0.0309375 -0.29749998 0.036875 -0.31974998 0.04875 -0.353625 C
0.053375 -0.3655 0.0576875 -0.3754375 0.0616875 -0.3834375 C
0.0776875 -0.4159375 0.097625 -0.4345625 0.1215 -0.4393125 C
0.12612501 -0.4399375 0.13075 -0.44025 0.135375 -0.44025 C
0.17125 -0.44025 0.1975 -0.425625 0.214125 -0.396375 C
0.214125 -0.3954375 L
0.2195 -0.3868125 0.2231875 -0.37687498 0.2251875 -0.365625 C
0.2669375 -0.415375 0.310375 -0.44025 0.3555 -0.44025 C
0.40275002 -0.44025 0.43893752 -0.419 0.4640625 -0.3765 C
0.4786875 -0.346625 0.4866875 -0.31475002 0.4880625 -0.280875 C
0.4880625 -0.20912501 0.4628125 -0.14275 0.4123125 -0.08175 C
0.36656252 -0.025874998 0.3164375 0.0046875 0.2619375 0.0099375 C
0.2573125 0.0105625 0.2526875 0.010875 0.2480625 0.010875 C
0.2061875 0.010875 0.175625 -0.010375001 0.156375 -0.052875 C
0.13175 0.034874994 0.1158125 0.0993125 0.1085625 0.1404375 C
0.1079375 0.1438125 0.107625 0.1458125 0.107625 0.1464375 C
0.107625 0.15368749 0.1119375 0.1583125 0.1205625 0.1603125 C
0.1215 0.1603125 L
0.1215 0.1603125 L
0.1295 0.16168751 0.1414375 0.162375 0.1573125 0.162375 C
0.1719375 0.162375 0.1799375 0.16600001 0.1813125 0.17325 C
0.1813125 0.186625 0.1753125 0.1933125 0.1633125 0.1933125 C
0.0658125 0.1903125 L
0.0646875 0.1903125 L
-0.016875 0.1933125 L
-0.0189375 0.1933125 L
-0.027562499 0.1933125 -0.031875 0.1893125 -0.031875 0.1813125 C
-0.027875 0.16931249 -0.02025 0.163 -0.009 0.162375 C
0.015624998 0.162375 0.0305625 0.1580625 0.0358125 0.1494375 C
0.0369375 0.1483125 L
0.0381875 0.14568749 0.039499998 0.1420625 0.040875 0.1374375 C
0.041500002 0.1340625 0.0428125 0.12875 0.0448125 0.1215 C
P
0.220125 -0.3106875 M
0.220125 -0.3106875 L
0.171375 -0.1155 L
0.169375 -0.1075 0.168375 -0.1021875 0.168375 -0.0995625 C
0.168375 -0.0843125 0.1743125 -0.0670625 0.1861875 -0.0478125 C
0.1935625 -0.0351875 0.202875 -0.0255625 0.214125 -0.0189375 C
0.224125 -0.0135625005 0.2350625 -0.010875 0.2469375 -0.010875 C
0.2808125 -0.010875 0.3126875 -0.032125 0.3425625 -0.074625 C
0.3511875 -0.086625 0.358875 -0.099625 0.365625 -0.113625 C
0.38349998 -0.151375 0.3984375 -0.20249999 0.4104375 -0.267 C
0.41431248 -0.29025 0.41625 -0.3095 0.41625 -0.32475 C
0.41625 -0.377125 0.40031248 -0.407625 0.3684375 -0.41625 C
0.3631875 -0.41762498 0.357875 -0.4183125 0.3525 -0.4183125 C
0.327375 -0.4183125 0.3005 -0.40568748 0.271875 -0.3804375 C
0.24337499 -0.3565625 0.226125 -0.3333125 0.220125 -0.3106875 C
P
G
WC
WF
R N
R
G
[81.25 0.0 0.0 81.25 1283.3334 1330.816] concat
N
-12.103 -12.687 M
11.897 -12.687 L
11.897 20.544 L
-12.103 20.544 L
-12.103 -12.687 L
P
WC
N
0.087692305 -0.058846153 M
0.087692305 -0.058846153 L
0.14557692 -0.28903845 L
0.15621795 -0.33160257 0.16153847 -0.35955128 0.16153847 -0.3728846 C
0.16153847 -0.40339744 0.15121795 -0.41865385 0.13057692 -0.41865385 C
0.10339744 -0.41865385 0.08115385 -0.3871154 0.063846156 -0.32403848 C
0.061794873 -0.31673077 0.05980769 -0.30871794 0.057884615 -0.3 C
0.050576925 -0.28538463 0.044935897 -0.2777564 0.040961538 -0.27711537 C
0.032884616 -0.27711537 0.028846154 -0.2804487 0.028846154 -0.2871154 C
0.028846154 -0.2977564 0.035192307 -0.32038462 0.047884617 -0.355 C
0.051858976 -0.36628205 0.055833332 -0.37589744 0.05980769 -0.38384616 C
0.075705126 -0.41641027 0.095641024 -0.435 0.11961538 -0.4396154 C
0.124230765 -0.44025642 0.12891026 -0.4405769 0.13365385 -0.4405769 C
0.16955128 -0.4405769 0.19608974 -0.42564103 0.21326923 -0.39576924 C
0.2199359 -0.38320515 0.22397436 -0.36923078 0.22538462 -0.35384616 C
0.2678205 -0.41166666 0.31961536 -0.4405769 0.38076922 -0.4405769 C
0.4147436 -0.4405769 0.4419872 -0.43198717 0.4625 -0.4148077 C
0.48121795 -0.39878207 0.491859 -0.3751282 0.4944231 -0.34384614 C
0.5396795 -0.40833333 0.59384614 -0.4405769 0.65692306 -0.4405769 C
0.7161538 -0.4405769 0.7526923 -0.4176923 0.76653844 -0.3719231 C
0.76653844 -0.37076923 L
0.7698718 -0.35948718 0.77153844 -0.3472436 0.77153844 -0.33403847 C
0.77153844 -0.29878205 0.75128204 -0.22564104 0.71076924 -0.11461539 C
0.69884616 -0.085384615 0.6928846 -0.06179487 0.6928846 -0.043846153 C
0.6928846 -0.021923078 0.7008333 -0.010961538 0.7167308 -0.010961538 C
0.75801283 -0.010961538 0.79057693 -0.0475 0.8144231 -0.120576926 C
0.81846154 -0.13461539 L
0.82179487 -0.14525642 0.8251282 -0.15089743 0.8284615 -0.15153846 C
0.8284615 -0.1525 L
0.8334615 -0.1525 L
0.8414102 -0.1525 0.8453846 -0.14916667 0.8453846 -0.1425 C
0.8453846 -0.13121796 0.83839744 -0.110320516 0.8244231 -0.07980769 C
0.79583335 -0.01929487 0.75929487 0.010961538 0.7148077 0.010961538 C
0.68096155 0.010961538 0.6566667 -0.003333332 0.64192307 -0.031923078 C
0.6360256 -0.043846156 0.6330769 -0.05679487 0.6330769 -0.07076923 C
0.6330769 -0.08410256 0.6373718 -0.1023718 0.6459615 -0.12557693 C
0.6872436 -0.23455128 0.7078846 -0.30897436 0.7078846 -0.34884617 C
0.7078846 -0.3953846 0.6899359 -0.41865385 0.6540385 -0.41865385 C
0.59557694 -0.41865385 0.5470513 -0.3871154 0.50846153 -0.32403848 C
0.49782053 -0.3073718 0.49147436 -0.2947436 0.48942307 -0.28615385 C
0.4875 -0.2774359 0.4675641 -0.19730769 0.42961538 -0.04576923 C
0.4223077 -0.017307691 0.41403845 -6.410247E-5 0.4048077 0.0059615383 C
0.40384614 0.0069230767 L
0.40269232 0.0069230767 L
0.39807692 0.009615384 0.39211538 0.010961538 0.3848077 0.010961538 C
0.36814103 0.007628205 0.35852563 -0.0013461551 0.35596153 -0.015961539 C
0.36884615 -0.07480769 L
0.38884616 -0.15057692 L
0.41673076 -0.26615384 L
0.42673078 -0.30333334 0.43173078 -0.33089745 0.43173078 -0.34884617 C
0.43173078 -0.3953846 0.41378206 -0.41865385 0.37788463 -0.41865385 C
0.31801283 -0.41865385 0.26782054 -0.38544872 0.22730769 -0.31903845 C
0.22269231 -0.31173077 0.21871795 -0.30442306 0.21538462 -0.2971154 C
0.20230769 -0.24730769 L
0.19897436 -0.23192307 0.19333333 -0.20961538 0.18538462 -0.18038462 C
0.16346154 -0.09076923 L
0.1521795 -0.044871796 0.14589743 -0.02025641 0.14461538 -0.016923077 C
0.13858974 3.8461573E-4 0.12628205 0.009679487 0.10769231 0.010961538 C
0.09102564 0.007628205 0.08141026 -0.0013461551 0.07884616 -0.015961539 C
0.07884616 -0.014679487 0.08179487 -0.02897436 0.087692305 -0.058846153 C
P
G
WC
WF
R N
R
G
[56.875 0.0 0.0 56.875 1354.6719 1350.9023] concat
N
-18.544 -18.477 M
15.742 -18.477 L
15.742 28.995 L
-18.544 28.995 L
-18.544 -18.477 L
P
WC
N
0.29478022 -0.64148355 M
0.29478022 -0.07912088 L
0.29478022 -0.059157513 0.29871795 -0.046520147 0.30659342 -0.041208792 C
0.31794873 -0.034432236 0.34505495 -0.031043956 0.3879121 -0.031043956 C
0.42005494 -0.031043956 L
0.42005494 0.0 L
0.39661172 -0.0020146521 0.34249085 -0.003021978 0.2576923 -0.003021978 C
0.17271063 -0.003021978 0.11858975 -0.0020146521 0.09532967 0.0 C
0.09532967 -0.031043956 L
0.1271978 -0.031043956 L
0.178663 -0.031043956 0.20805861 -0.037087914 0.21538462 -0.049175825 C
0.21648352 -0.05 L
0.21923077 -0.055494506 0.2206044 -0.06520147 0.2206044 -0.07912088 C
0.2206044 -0.59835166 L
0.18580586 -0.5809524 0.14203297 -0.57225275 0.08928572 -0.57225275 C
0.08928572 -0.6032967 L
0.16932234 -0.6032967 0.23012821 -0.6247253 0.2717033 -0.66758245 C
0.28434065 -0.66758245 0.29166666 -0.6652015 0.29368132 -0.66043955 C
0.29368132 -0.66043955 L
0.29368132 -0.6593407 L
0.29441392 -0.657326 0.29478022 -0.6513736 0.29478022 -0.64148355 C
P
G
WC
WF
R N
R
G
[4.1666665 0.0 0.0 4.1666665 300.0 300.0] concat
N
0.0 0.0 M
468.0 0.0 L
468.0 648.0 L
0.0 648.0 L
0.0 0.0 L
P
WC
N
208.0 287.0 M
160.0 287.0 L
159.0 287.0 L
159.0 289.0 L
160.0 289.0 L
208.0 289.0 L
209.0 289.0 L
209.0 287.0 L
208.0 287.0 L
P
G
WC
WF
R N
N
187.333 288.0 M
180.667 290.667 L
182.0 288.0 L
180.667 285.333 L
P
G
WC
WF
R N
N
187.148 287.536 M
180.481 290.202 L
180.667 290.667 L
181.114 290.89 L
182.447 288.223 L
182.559 288.0 L
182.447 287.777 L
181.114 285.11 L
180.667 285.333 L
180.481 285.798 L
187.148 288.464 L
187.333 288.0 L
187.148 287.536 L
P
187.519 287.536 M
180.852 284.869 L
179.632 284.381 L
180.219 285.557 L
181.553 288.223 L
182.0 288.0 L
181.553 287.777 L
180.219 290.443 L
179.632 291.619 L
180.852 291.131 L
187.519 288.464 L
188.68 288.0 L
187.519 287.536 L
P
G
WC
WF
R N
N
287.293 287.293 M
265.592 308.994 230.408 308.994 208.707 287.293 C
208.0 286.586 L
206.586 288.0 L
207.293 288.707 L
229.775 311.189 266.225 311.189 288.707 288.707 C
289.414 288.0 L
288.0 286.586 L
287.293 287.293 L
P
G
WC
WF
R N
N
288.707 287.293 M
266.225 264.811 229.775 264.811 207.293 287.293 C
206.586 288.0 L
208.0 289.414 L
208.707 288.707 L
230.408 267.006 265.592 267.006 287.293 288.707 C
288.0 289.414 L
289.414 288.0 L
288.707 287.293 L
P
G
WC
WF
R N
N
288.981 287.803 M
285.073 268.269 267.922 254.208 248.0 254.208 C
228.078 254.208 210.927 268.269 207.02 287.803 C
206.823 288.784 L
208.784 289.177 L
208.98 288.197 L
212.7 269.597 229.032 256.208 248.0 256.208 C
266.968 256.208 283.3 269.597 287.02 288.197 C
287.216 289.177 L
289.177 288.784 L
288.981 287.803 L
P
G
WC
WF
R N
R
G
[81.25 0.0 0.0 81.25 1283.3334 1484.9825] concat
N
-12.103 -14.584 M
11.897 -14.584 L
11.897 18.646 L
-12.103 18.646 L
-12.103 -14.584 L
P
WC
N
0.087692305 -0.058846153 M
0.087692305 -0.058846153 L
0.14557692 -0.28903845 L
0.15621795 -0.33160257 0.16153847 -0.35955128 0.16153847 -0.3728846 C
0.16153847 -0.40339744 0.15121795 -0.41865385 0.13057692 -0.41865385 C
0.10339744 -0.41865385 0.08115385 -0.3871154 0.063846156 -0.32403848 C
0.061794873 -0.31673077 0.05980769 -0.30871794 0.057884615 -0.3 C
0.050576925 -0.28538463 0.044935897 -0.2777564 0.040961538 -0.27711537 C
0.032884616 -0.27711537 0.028846154 -0.2804487 0.028846154 -0.2871154 C
0.028846154 -0.2977564 0.035192307 -0.32038462 0.047884617 -0.355 C
0.051858976 -0.36628205 0.055833332 -0.37589744 0.05980769 -0.38384616 C
0.075705126 -0.41641027 0.095641024 -0.435 0.11961538 -0.4396154 C
0.124230765 -0.44025642 0.12891026 -0.4405769 0.13365385 -0.4405769 C
0.16955128 -0.4405769 0.19608974 -0.42564103 0.21326923 -0.39576924 C
0.2199359 -0.38320515 0.22397436 -0.36923078 0.22538462 -0.35384616 C
0.2678205 -0.41166666 0.31961536 -0.4405769 0.38076922 -0.4405769 C
0.4147436 -0.4405769 0.4419872 -0.43198717 0.4625 -0.4148077 C
0.48121795 -0.39878207 0.491859 -0.3751282 0.4944231 -0.34384614 C
0.5396795 -0.40833333 0.59384614 -0.4405769 0.65692306 -0.4405769 C
0.7161538 -0.4405769 0.7526923 -0.4176923 0.76653844 -0.3719231 C
0.76653844 -0.37076923 L
0.7698718 -0.35948718 0.77153844 -0.3472436 0.77153844 -0.33403847 C
0.77153844 -0.29878205 0.75128204 -0.22564104 0.71076924 -0.11461539 C
0.69884616 -0.085384615 0.6928846 -0.06179487 0.6928846 -0.043846153 C
0.6928846 -0.021923078 0.7008333 -0.010961538 0.7167308 -0.010961538 C
0.75801283 -0.010961538 0.79057693 -0.0475 0.8144231 -0.120576926 C
0.81846154 -0.13461539 L
0.82179487 -0.14525642 0.8251282 -0.15089743 0.8284615 -0.15153846 C
0.8284615 -0.1525 L
0.8334615 -0.1525 L
0.8414102 -0.1525 0.8453846 -0.14916667 0.8453846 -0.1425 C
0.8453846 -0.13121796 0.83839744 -0.110320516 0.8244231 -0.07980769 C
0.79583335 -0.01929487 0.75929487 0.010961538 0.7148077 0.010961538 C
0.68096155 0.010961538 0.6566667 -0.003333332 0.64192307 -0.031923078 C
0.6360256 -0.043846156 0.6330769 -0.05679487 0.6330769 -0.07076923 C
0.6330769 -0.08410256 0.6373718 -0.1023718 0.6459615 -0.12557693 C
0.6872436 -0.23455128 0.7078846 -0.30897436 0.7078846 -0.34884617 C
0.7078846 -0.3953846 0.6899359 -0.41865385 0.6540385 -0.41865385 C
0.59557694 -0.41865385 0.5470513 -0.3871154 0.50846153 -0.32403848 C
0.49782053 -0.3073718 0.49147436 -0.2947436 0.48942307 -0.28615385 C
0.4875 -0.2774359 0.4675641 -0.19730769 0.42961538 -0.04576923 C
0.4223077 -0.017307691 0.41403845 -6.410247E-5 0.4048077 0.0059615383 C
0.40384614 0.0069230767 L
0.40269232 0.0069230767 L
0.39807692 0.009615384 0.39211538 0.010961538 0.3848077 0.010961538 C
0.36814103 0.007628205 0.35852563 -0.0013461551 0.35596153 -0.015961539 C
0.36884615 -0.07480769 L
0.38884616 -0.15057692 L
0.41673076 -0.26615384 L
0.42673078 -0.30333334 0.43173078 -0.33089745 0.43173078 -0.34884617 C
0.43173078 -0.3953846 0.41378206 -0.41865385 0.37788463 -0.41865385 C
0.31801283 -0.41865385 0.26782054 -0.38544872 0.22730769 -0.31903845 C
0.22269231 -0.31173077 0.21871795 -0.30442306 0.21538462 -0.2971154 C
0.20230769 -0.24730769 L
0.19897436 -0.23192307 0.19333333 -0.20961538 0.18538462 -0.18038462 C
0.16346154 -0.09076923 L
0.1521795 -0.044871796 0.14589743 -0.02025641 0.14461538 -0.016923077 C
0.13858974 3.8461573E-4 0.12628205 0.009679487 0.10769231 0.010961538 C
0.09102564 0.007628205 0.08141026 -0.0013461551 0.07884616 -0.015961539 C
0.07884616 -0.014679487 0.08179487 -0.02897436 0.087692305 -0.058846153 C
P
G
WC
WF
R N
R
G
[56.875 0.0 0.0 56.875 1354.6719 1497.17] concat
N
-18.544 -21.049 M
15.742 -21.049 L
15.742 26.423 L
-18.544 26.423 L
-18.544 -21.049 L
P
WC
N
0.45000002 -0.17445055 M
0.45000002 -0.17445055 L
0.42197803 0.0 L
0.05 0.0 L
0.05 -0.016666668 0.052014653 -0.027380953 0.056043956 -0.03214286 C
0.061263736 -0.037087914 L
0.25357142 -0.25164837 L
0.32371795 -0.33040294 0.3587912 -0.40421245 0.3587912 -0.47307694 C
0.3587912 -0.53260076 0.3407509 -0.57765573 0.30467033 -0.6082418 C
0.30357143 -0.60934067 L
0.30274725 -0.60934067 L
0.2813187 -0.62728935 0.2552198 -0.6362637 0.22445056 -0.6362637 C
0.17628206 -0.6362637 0.1379121 -0.61556774 0.10934066 -0.57417583 C
0.10128205 -0.56227106 0.09459707 -0.54890114 0.08928572 -0.53406596 C
0.09130037 -0.53479856 0.0956044 -0.53516483 0.1021978 -0.53516483 C
0.12893774 -0.53516483 0.1459707 -0.5231685 0.15329671 -0.49917585 C
0.15329671 -0.49807695 L
0.15457876 -0.49349818 0.15521978 -0.48846155 0.15521978 -0.48296705 C
0.15521978 -0.45622712 0.14258242 -0.43919414 0.11730769 -0.43186814 C
0.11199634 -0.43058607 0.10732601 -0.42994505 0.103296705 -0.42994505 C
0.07857143 -0.42994505 0.06217949 -0.44029304 0.05412088 -0.46098903 C
0.051373627 -0.46831504 0.05 -0.47664836 0.05 -0.485989 C
0.05 -0.53745425 0.069780216 -0.5815934 0.10934066 -0.6184066 C
0.14468864 -0.6511905 0.18745421 -0.66758245 0.23763737 -0.66758245 C
0.31108057 -0.66758245 0.36813188 -0.6428572 0.4087912 -0.5934066 C
0.43223444 -0.564652 0.4456044 -0.53058606 0.44890112 -0.4912088 C
0.44963372 -0.48516485 0.45000002 -0.47912088 0.45000002 -0.47307694 C
0.45000002 -0.424359 0.43159342 -0.3779304 0.39478022 -0.33379123 C
0.37554947 -0.3110806 0.34551284 -0.2809524 0.30467033 -0.2434066 C
0.2434066 -0.18928571 L
0.23351648 -0.1804945 L
0.1271978 -0.077197805 L
0.30769232 -0.077197805 L
0.3664835 -0.077197805 0.3981685 -0.07985348 0.40274727 -0.08516484 C
0.40952381 -0.0945055 0.4169414 -0.1242674 0.425 -0.17445055 C
0.45000002 -0.17445055 L
P
G
WC
WF
R N
R
G
[81.25 0.0 0.0 81.25 1283.3334 1543.3159] concat
N
-12.103 -15.302 M
11.897 -15.302 L
11.897 17.928 L
-12.103 17.928 L
-12.103 -15.302 L
P
WC
N
0.087692305 -0.058846153 M
0.087692305 -0.058846153 L
0.14557692 -0.28903845 L
0.15621795 -0.33160257 0.16153847 -0.35955128 0.16153847 -0.3728846 C
0.16153847 -0.40339744 0.15121795 -0.41865385 0.13057692 -0.41865385 C
0.10339744 -0.41865385 0.08115385 -0.3871154 0.063846156 -0.32403848 C
0.061794873 -0.31673077 0.05980769 -0.30871794 0.057884615 -0.3 C
0.050576925 -0.28538463 0.044935897 -0.2777564 0.040961538 -0.27711537 C
0.032884616 -0.27711537 0.028846154 -0.2804487 0.028846154 -0.2871154 C
0.028846154 -0.2977564 0.035192307 -0.32038462 0.047884617 -0.355 C
0.051858976 -0.36628205 0.055833332 -0.37589744 0.05980769 -0.38384616 C
0.075705126 -0.41641027 0.095641024 -0.435 0.11961538 -0.4396154 C
0.124230765 -0.44025642 0.12891026 -0.4405769 0.13365385 -0.4405769 C
0.16955128 -0.4405769 0.19608974 -0.42564103 0.21326923 -0.39576924 C
0.2199359 -0.38320515 0.22397436 -0.36923078 0.22538462 -0.35384616 C
0.2678205 -0.41166666 0.31961536 -0.4405769 0.38076922 -0.4405769 C
0.4147436 -0.4405769 0.4419872 -0.43198717 0.4625 -0.4148077 C
0.48121795 -0.39878207 0.491859 -0.3751282 0.4944231 -0.34384614 C
0.5396795 -0.40833333 0.59384614 -0.4405769 0.65692306 -0.4405769 C
0.7161538 -0.4405769 0.7526923 -0.4176923 0.76653844 -0.3719231 C
0.76653844 -0.37076923 L
0.7698718 -0.35948718 0.77153844 -0.3472436 0.77153844 -0.33403847 C
0.77153844 -0.29878205 0.75128204 -0.22564104 0.71076924 -0.11461539 C
0.69884616 -0.085384615 0.6928846 -0.06179487 0.6928846 -0.043846153 C
0.6928846 -0.021923078 0.7008333 -0.010961538 0.7167308 -0.010961538 C
0.75801283 -0.010961538 0.79057693 -0.0475 0.8144231 -0.120576926 C
0.81846154 -0.13461539 L
0.82179487 -0.14525642 0.8251282 -0.15089743 0.8284615 -0.15153846 C
0.8284615 -0.1525 L
0.8334615 -0.1525 L
0.8414102 -0.1525 0.8453846 -0.14916667 0.8453846 -0.1425 C
0.8453846 -0.13121796 0.83839744 -0.110320516 0.8244231 -0.07980769 C
0.79583335 -0.01929487 0.75929487 0.010961538 0.7148077 0.010961538 C
0.68096155 0.010961538 0.6566667 -0.003333332 0.64192307 -0.031923078 C
0.6360256 -0.043846156 0.6330769 -0.05679487 0.6330769 -0.07076923 C
0.6330769 -0.08410256 0.6373718 -0.1023718 0.6459615 -0.12557693 C
0.6872436 -0.23455128 0.7078846 -0.30897436 0.7078846 -0.34884617 C
0.7078846 -0.3953846 0.6899359 -0.41865385 0.6540385 -0.41865385 C
0.59557694 -0.41865385 0.5470513 -0.3871154 0.50846153 -0.32403848 C
0.49782053 -0.3073718 0.49147436 -0.2947436 0.48942307 -0.28615385 C
0.4875 -0.2774359 0.4675641 -0.19730769 0.42961538 -0.04576923 C
0.4223077 -0.017307691 0.41403845 -6.410247E-5 0.4048077 0.0059615383 C
0.40384614 0.0069230767 L
0.40269232 0.0069230767 L
0.39807692 0.009615384 0.39211538 0.010961538 0.3848077 0.010961538 C
0.36814103 0.007628205 0.35852563 -0.0013461551 0.35596153 -0.015961539 C
0.36884615 -0.07480769 L
0.38884616 -0.15057692 L
0.41673076 -0.26615384 L
0.42673078 -0.30333334 0.43173078 -0.33089745 0.43173078 -0.34884617 C
0.43173078 -0.3953846 0.41378206 -0.41865385 0.37788463 -0.41865385 C
0.31801283 -0.41865385 0.26782054 -0.38544872 0.22730769 -0.31903845 C
0.22269231 -0.31173077 0.21871795 -0.30442306 0.21538462 -0.2971154 C
0.20230769 -0.24730769 L
0.19897436 -0.23192307 0.19333333 -0.20961538 0.18538462 -0.18038462 C
0.16346154 -0.09076923 L
0.1521795 -0.044871796 0.14589743 -0.02025641 0.14461538 -0.016923077 C
0.13858974 3.8461573E-4 0.12628205 0.009679487 0.10769231 0.010961538 C
0.09102564 0.007628205 0.08141026 -0.0013461551 0.07884616 -0.015961539 C
0.07884616 -0.014679487 0.08179487 -0.02897436 0.087692305 -0.058846153 C
P
G
WC
WF
R N
R
G
[56.875 0.0 0.0 56.875 1354.6719 1555.5034] concat
N
-18.544 -22.075 M
15.742 -22.075 L
15.742 25.398 L
-18.544 25.398 L
-18.544 -22.075 L
P
WC
N
0.29065934 -0.35274726 M
0.29065934 -0.35274726 L
0.35750917 -0.3393773 0.4055861 -0.306685 0.43489012 -0.25467032 C
0.45027474 -0.22847985 0.45796704 -0.2007326 0.45796704 -0.17142858 C
0.45796704 -0.11465202 0.4346154 -0.06684982 0.3879121 -0.028021978 C
0.3470696 0.005311357 0.2992674 0.021978023 0.2445055 0.021978023 C
0.17838827 0.021978023 0.12527472 0.0022893772 0.08516484 -0.037087914 C
0.05641026 -0.06510989 0.04203297 -0.09780221 0.04203297 -0.13516484 C
0.04203297 -0.16666667 0.05604396 -0.18543956 0.08406594 -0.19148351 C
0.08882784 -0.19276556 0.093589745 -0.1934066 0.09835165 -0.1934066 C
0.12362638 -0.1934066 0.14065935 -0.1826923 0.14945056 -0.16126373 C
0.15201466 -0.15265568 0.15366301 -0.14468865 0.15439561 -0.13736264 C
0.15439561 -0.11062271 0.1423077 -0.093223445 0.11813187 -0.08516484 C
0.10879121 -0.081868134 0.098809525 -0.08086081 0.088186815 -0.08214286 C
0.112912096 -0.040750917 0.15567766 -0.016025642 0.21648352 -0.007967033 C
0.22509158 -0.0066849818 0.23342492 -0.006043956 0.24148352 -0.006043956 C
0.28434068 -0.006043956 0.31575093 -0.02710623 0.33571428 -0.06923077 C
0.34835166 -0.0959707 0.35467035 -0.13003664 0.35467035 -0.17142858 C
0.35467035 -0.2602564 0.328022 -0.3136447 0.2747253 -0.33159342 C
0.26263738 -0.33562273 0.24954213 -0.33763736 0.23543957 -0.33763736 C
0.19148351 -0.33763736 L
0.1768315 -0.33763736 0.16877289 -0.34139195 0.16730769 -0.3489011 C
0.16730769 -0.3554945 0.17234433 -0.35943222 0.18241759 -0.3607143 C
0.19249085 -0.3607143 0.20549451 -0.3617216 0.22142857 -0.36373627 C
0.2554945 -0.36520147 0.28223443 -0.37820515 0.30164835 -0.40274727 C
0.30164835 -0.40384617 L
0.30274725 -0.40494508 L
0.30357143 -0.40576923 L
0.30467033 -0.40576923 L
0.3107143 -0.4159341 L
0.32939562 -0.44725275 0.33873627 -0.485348 0.33873627 -0.5302198 C
0.33873627 -0.5923077 0.31465203 -0.628663 0.26648352 -0.63928574 C
0.25860804 -0.6413004 0.25064102 -0.6423077 0.24258243 -0.6423077 C
0.19569597 -0.6423077 0.15760073 -0.6289377 0.1282967 -0.6021978 C
0.120970696 -0.5956044 0.114652015 -0.5882784 0.10934066 -0.5802198 C
0.1507326 -0.5802198 0.17142858 -0.56355315 0.17142858 -0.5302198 C
0.17142858 -0.506044 0.16108058 -0.49001834 0.14038461 -0.48214287 C
0.13434066 -0.4801282 0.12765568 -0.47912088 0.12032967 -0.47912088 C
0.094139196 -0.47912088 0.077747256 -0.49075094 0.07115385 -0.514011 C
0.07115385 -0.514011 L
0.07115385 -0.5151099 L
0.0698718 -0.52042127 0.06923077 -0.52573264 0.06923077 -0.53104395 C
0.06923077 -0.57591575 0.0912088 -0.61172163 0.13516484 -0.63846153 C
0.16739927 -0.6578755 0.20448719 -0.66758245 0.24642858 -0.66758245 C
0.30723444 -0.66758245 0.35641026 -0.64954215 0.39395607 -0.61346155 C
0.39587912 -0.61126375 L
0.41932234 -0.58727103 0.43104395 -0.5598901 0.43104395 -0.52912086 C
0.43104395 -0.47362638 0.407326 -0.4271978 0.3598901 -0.38983518 C
0.33919415 -0.3739011 0.31611723 -0.36153847 0.29065934 -0.35274726 C
P
G
WC
WF
R N
R
G
[81.25 0.0 0.0 81.25 1283.3334 1689.1493] concat
N
-12.103 -17.097 M
11.897 -17.097 L
11.897 16.134 L
-12.103 16.134 L
-12.103 -17.097 L
P
WC
N
0.087692305 -0.058846153 M
0.087692305 -0.058846153 L
0.14557692 -0.28903845 L
0.15621795 -0.33160257 0.16153847 -0.35955128 0.16153847 -0.3728846 C
0.16153847 -0.40339744 0.15121795 -0.41865385 0.13057692 -0.41865385 C
0.10339744 -0.41865385 0.08115385 -0.3871154 0.063846156 -0.32403848 C
0.061794873 -0.31673077 0.05980769 -0.30871794 0.057884615 -0.3 C
0.050576925 -0.28538463 0.044935897 -0.2777564 0.040961538 -0.27711537 C
0.032884616 -0.27711537 0.028846154 -0.2804487 0.028846154 -0.2871154 C
0.028846154 -0.2977564 0.035192307 -0.32038462 0.047884617 -0.355 C
0.051858976 -0.36628205 0.055833332 -0.37589744 0.05980769 -0.38384616 C
0.075705126 -0.41641027 0.095641024 -0.435 0.11961538 -0.4396154 C
0.124230765 -0.44025642 0.12891026 -0.4405769 0.13365385 -0.4405769 C
0.16955128 -0.4405769 0.19608974 -0.42564103 0.21326923 -0.39576924 C
0.2199359 -0.38320515 0.22397436 -0.36923078 0.22538462 -0.35384616 C
0.2678205 -0.41166666 0.31961536 -0.4405769 0.38076922 -0.4405769 C
0.4147436 -0.4405769 0.4419872 -0.43198717 0.4625 -0.4148077 C
0.48121795 -0.39878207 0.491859 -0.3751282 0.4944231 -0.34384614 C
0.5396795 -0.40833333 0.59384614 -0.4405769 0.65692306 -0.4405769 C
0.7161538 -0.4405769 0.7526923 -0.4176923 0.76653844 -0.3719231 C
0.76653844 -0.37076923 L
0.7698718 -0.35948718 0.77153844 -0.3472436 0.77153844 -0.33403847 C
0.77153844 -0.29878205 0.75128204 -0.22564104 0.71076924 -0.11461539 C
0.69884616 -0.085384615 0.6928846 -0.06179487 0.6928846 -0.043846153 C
0.6928846 -0.021923078 0.7008333 -0.010961538 0.7167308 -0.010961538 C
0.75801283 -0.010961538 0.79057693 -0.0475 0.8144231 -0.120576926 C
0.81846154 -0.13461539 L
0.82179487 -0.14525642 0.8251282 -0.15089743 0.8284615 -0.15153846 C
0.8284615 -0.1525 L
0.8334615 -0.1525 L
0.8414102 -0.1525 0.8453846 -0.14916667 0.8453846 -0.1425 C
0.8453846 -0.13121796 0.83839744 -0.110320516 0.8244231 -0.07980769 C
0.79583335 -0.01929487 0.75929487 0.010961538 0.7148077 0.010961538 C
0.68096155 0.010961538 0.6566667 -0.003333332 0.64192307 -0.031923078 C
0.6360256 -0.043846156 0.6330769 -0.05679487 0.6330769 -0.07076923 C
0.6330769 -0.08410256 0.6373718 -0.1023718 0.6459615 -0.12557693 C
0.6872436 -0.23455128 0.7078846 -0.30897436 0.7078846 -0.34884617 C
0.7078846 -0.3953846 0.6899359 -0.41865385 0.6540385 -0.41865385 C
0.59557694 -0.41865385 0.5470513 -0.3871154 0.50846153 -0.32403848 C
0.49782053 -0.3073718 0.49147436 -0.2947436 0.48942307 -0.28615385 C
0.4875 -0.2774359 0.4675641 -0.19730769 0.42961538 -0.04576923 C
0.4223077 -0.017307691 0.41403845 -6.410247E-5 0.4048077 0.0059615383 C
0.40384614 0.0069230767 L
0.40269232 0.0069230767 L
0.39807692 0.009615384 0.39211538 0.010961538 0.3848077 0.010961538 C
0.36814103 0.007628205 0.35852563 -0.0013461551 0.35596153 -0.015961539 C
0.36884615 -0.07480769 L
0.38884616 -0.15057692 L
0.41673076 -0.26615384 L
0.42673078 -0.30333334 0.43173078 -0.33089745 0.43173078 -0.34884617 C
0.43173078 -0.3953846 0.41378206 -0.41865385 0.37788463 -0.41865385 C
0.31801283 -0.41865385 0.26782054 -0.38544872 0.22730769 -0.31903845 C
0.22269231 -0.31173077 0.21871795 -0.30442306 0.21538462 -0.2971154 C
0.20230769 -0.24730769 L
0.19897436 -0.23192307 0.19333333 -0.20961538 0.18538462 -0.18038462 C
0.16346154 -0.09076923 L
0.1521795 -0.044871796 0.14589743 -0.02025641 0.14461538 -0.016923077 C
0.13858974 3.8461573E-4 0.12628205 0.009679487 0.10769231 0.010961538 C
0.09102564 0.007628205 0.08141026 -0.0013461551 0.07884616 -0.015961539 C
0.07884616 -0.014679487 0.08179487 -0.02897436 0.087692305 -0.058846153 C
P
G
WC
WF
R N
R
G
[56.875 0.0 0.0 56.875 1354.6719 1701.3367] concat
N
-18.544 -24.639 M
15.742 -24.639 L
15.742 22.834 L
-18.544 22.834 L
-18.544 -24.639 L
P
WC
N
0.028021978 -0.16538462 M
0.028021978 -0.19642858 L
0.33571428 -0.6664835 L
0.34102565 -0.6745421 0.34771064 -0.67857146 0.35576925 -0.67857146 C
0.3651099 -0.67857146 0.37042123 -0.67490846 0.3717033 -0.66758245 C
0.3717033 -0.65247256 L
0.3717033 -0.19642858 L
0.47197804 -0.19642858 L
0.47197804 -0.16538462 L
0.3717033 -0.16538462 L
0.3717033 -0.078296706 L
0.3717033 -0.057417586 0.3757326 -0.044688646 0.3837912 -0.04010989 C
0.39313188 -0.034065936 0.41456044 -0.031043956 0.44807693 -0.031043956 C
0.46895605 -0.031043956 L
0.46895605 0.0 L
0.4416667 -0.0020146521 0.39624545 -0.003021978 0.33269233 -0.003021978 C
0.2698718 -0.003021978 0.22481686 -0.0020146521 0.19752748 0.0 C
0.19752748 -0.031043956 L
0.2184066 -0.031043956 L
0.25979853 -0.031043956 0.2838828 -0.036721613 0.29065934 -0.048076924 C
0.2934066 -0.05283883 0.29478022 -0.06291209 0.29478022 -0.078296706 C
0.29478022 -0.16538462 L
0.028021978 -0.16538462 L
P
0.30054945 -0.19642858 M
0.30054945 -0.57032967 L
0.056043956 -0.19642858 L
0.30054945 -0.19642858 L
P
G
WC
WF
R N
R
G
[4.1666665 0.0 0.0 4.1666665 300.0 300.0] concat
N
0.0 0.0 M
468.0 0.0 L
468.0 648.0 L
0.0 648.0 L
0.0 0.0 L
P
WC
N
336.0 287.0 M
288.0 287.0 L
287.0 287.0 L
287.0 289.0 L
288.0 289.0 L
336.0 289.0 L
337.0 289.0 L
337.0 287.0 L
336.0 287.0 L
P
G
WC
WF
R N
N
315.333 288.0 M
308.667 290.667 L
310.0 288.0 L
308.667 285.333 L
P
G
WC
WF
R N
N
315.148 287.536 M
308.481 290.202 L
308.667 290.667 L
309.114 290.89 L
310.447 288.223 L
310.559 288.0 L
310.447 287.777 L
309.114 285.11 L
308.667 285.333 L
308.481 285.798 L
315.148 288.464 L
315.333 288.0 L
315.148 287.536 L
P
315.519 287.536 M
308.852 284.869 L
307.632 284.381 L
308.219 285.557 L
309.553 288.223 L
310.0 288.0 L
309.553 287.777 L
308.219 290.443 L
307.632 291.619 L
308.852 291.131 L
315.519 288.464 L
316.68 288.0 L
315.519 287.536 L
P
G
WC
WF
R N
R
G
[83.333336 0.0 0.0 83.333336 1579.1667 1444.213] concat
N
-15.35 -13.731 M
8.05 -13.731 L
8.05 18.669 L
-15.35 18.669 L
-15.35 -13.731 L
P
WC
N
0.0448125 0.1215 M
0.0448125 0.1215 L
0.156375 -0.32175 L
0.161 -0.341625 0.1633125 -0.3585625 0.1633125 -0.3725625 C
0.1633125 -0.4030625 0.153 -0.4183125 0.132375 -0.4183125 C
0.10525 -0.4183125 0.0830625 -0.38674998 0.0658125 -0.323625 C
0.0638125 -0.31637502 0.0618125 -0.3084375 0.0598125 -0.2998125 C
0.0524375 -0.2851875 0.046749998 -0.2775625 0.04275 -0.2769375 C
0.034875 -0.2769375 0.0309375 -0.28025 0.0309375 -0.286875 C
0.0309375 -0.29749998 0.036875 -0.31974998 0.04875 -0.353625 C
0.053375 -0.3655 0.0576875 -0.3754375 0.0616875 -0.3834375 C
0.0776875 -0.4159375 0.097625 -0.4345625 0.1215 -0.4393125 C
0.12612501 -0.4399375 0.13075 -0.44025 0.135375 -0.44025 C
0.17125 -0.44025 0.1975 -0.425625 0.214125 -0.396375 C
0.214125 -0.3954375 L
0.2195 -0.3868125 0.2231875 -0.37687498 0.2251875 -0.365625 C
0.2669375 -0.415375 0.310375 -0.44025 0.3555 -0.44025 C
0.40275002 -0.44025 0.43893752 -0.419 0.4640625 -0.3765 C
0.4786875 -0.346625 0.4866875 -0.31475002 0.4880625 -0.280875 C
0.4880625 -0.20912501 0.4628125 -0.14275 0.4123125 -0.08175 C
0.36656252 -0.025874998 0.3164375 0.0046875 0.2619375 0.0099375 C
0.2573125 0.0105625 0.2526875 0.010875 0.2480625 0.010875 C
0.2061875 0.010875 0.175625 -0.010375001 0.156375 -0.052875 C
0.13175 0.034874994 0.1158125 0.0993125 0.1085625 0.1404375 C
0.1079375 0.1438125 0.107625 0.1458125 0.107625 0.1464375 C
0.107625 0.15368749 0.1119375 0.1583125 0.1205625 0.1603125 C
0.1215 0.1603125 L
0.1215 0.1603125 L
0.1295 0.16168751 0.1414375 0.162375 0.1573125 0.162375 C
0.1719375 0.162375 0.1799375 0.16600001 0.1813125 0.17325 C
0.1813125 0.186625 0.1753125 0.1933125 0.1633125 0.1933125 C
0.0658125 0.1903125 L
0.0646875 0.1903125 L
-0.016875 0.1933125 L
-0.0189375 0.1933125 L
-0.027562499 0.1933125 -0.031875 0.1893125 -0.031875 0.1813125 C
-0.027875 0.16931249 -0.02025 0.163 -0.009 0.162375 C
0.015624998 0.162375 0.0305625 0.1580625 0.0358125 0.1494375 C
0.0369375 0.1483125 L
0.0381875 0.14568749 0.039499998 0.1420625 0.040875 0.1374375 C
0.041500002 0.1340625 0.0428125 0.12875 0.0448125 0.1215 C
P
0.220125 -0.3106875 M
0.220125 -0.3106875 L
0.171375 -0.1155 L
0.169375 -0.1075 0.168375 -0.1021875 0.168375 -0.0995625 C
0.168375 -0.0843125 0.1743125 -0.0670625 0.1861875 -0.0478125 C
0.1935625 -0.0351875 0.202875 -0.0255625 0.214125 -0.0189375 C
0.224125 -0.0135625005 0.2350625 -0.010875 0.2469375 -0.010875 C
0.2808125 -0.010875 0.3126875 -0.032125 0.3425625 -0.074625 C
0.3511875 -0.086625 0.358875 -0.099625 0.365625 -0.113625 C
0.38349998 -0.151375 0.3984375 -0.20249999 0.4104375 -0.267 C
0.41431248 -0.29025 0.41625 -0.3095 0.41625 -0.32475 C
0.41625 -0.377125 0.40031248 -0.407625 0.3684375 -0.41625 C
0.3631875 -0.41762498 0.357875 -0.4183125 0.3525 -0.4183125 C
0.327375 -0.4183125 0.3005 -0.40568748 0.271875 -0.3804375 C
0.24337499 -0.3565625 0.226125 -0.3333125 0.220125 -0.3106875 C
P
G
WC
WF
R N
pgSave restore
showpage
%%EOF
